// Jest Snapshot v1, https://goo.gl/fbAQLP

exports[`<TaskCard /> should match the snapshot 1`] = `"<div data-test=\\"material-card-test\\"><div class=\\"MuiPaper-root MuiCard-root makeStyles-Card-1 MuiPaper-elevation5 MuiPaper-rounded\\" data-test=\\"task-card\\"><div class=\\"makeStyles-cardActionsTopPlaceholder-4\\"></div>Task text</div></div>"`;
